^D:\DESKTOP\GAME08\GAME08\LIB\GLM-0.9.4.0\TARGET\CMAKEFILES\2.8.12.2\COMPILERIDCXX\CMAKECXXCOMPILERID.CPP
D:\PLIKI PROGRAMóW (X86)\MICROSOFT VISUAL STUDIO 12.0\VC\BIN\1033\CLUI.DLL
C:\WINDOWS\GLOBALIZATION\SORTING\SORTDEFAULT.NLS
C:\WINDOWS\SYSTEM32\TZRES.DLL
